<svg xmlns="http://www.w3.org/2000/svg" xmlns:xlink="http://www.w3.org/1999/xlink" viewBox="1473.205 12.729 174.386 54.187">
  <defs>
    <style>
      .cls-1, .cls-2 {
        fill: #0091ea;
      }

      .cls-1 {
        stroke: rgba(0,0,0,0);
      }

      .cls-3 {
        fill: #005182;
      }

      .cls-4 {
        fill: #fff;
      }

      .cls-5 {
        filter: url(#Path_319);
      }

      .cls-6 {
        filter: url(#Ellipse_4);
      }
    </style>
    <filter id="Ellipse_4" x="1477.045" y="34.089" width="32.826" height="32.826" filterUnits="userSpaceOnUse">
      <feOffset dy="-1" input="SourceAlpha"/>
      <feGaussianBlur stdDeviation="2" result="blur"/>
      <feFlood flood-opacity="0.161"/>
      <feComposite operator="in" in2="blur"/>
      <feComposite in="SourceGraphic"/>
    </filter>
    <filter id="Path_319" x="1473.205" y="12.729" width="41.645" height="23.911" filterUnits="userSpaceOnUse">
      <feOffset dy="3" input="SourceAlpha"/>
      <feGaussianBlur stdDeviation="3" result="blur-2"/>
      <feFlood flood-opacity="0.161"/>
      <feComposite operator="in" in2="blur-2"/>
      <feComposite in="SourceGraphic"/>
    </filter>
  </defs>
  <g id="Group_980" data-name="Group 980" transform="translate(1436)">
    <path id="Path_328" data-name="Path 328" class="cls-1" d="M12.189.926a1.73,1.73,0,0,0-.664-1.457,7.992,7.992,0,0,0-2.4-1.033A11.572,11.572,0,0,1,6.373-2.725,3.677,3.677,0,0,1,4.415-5.934,3.491,3.491,0,0,1,5.827-8.788,5.716,5.716,0,0,1,9.493-9.91a6.192,6.192,0,0,1,2.667.551A4.377,4.377,0,0,1,14-7.789a4.026,4.026,0,0,1,.669,2.259h-2.48a2.245,2.245,0,0,0-.7-1.757,2.9,2.9,0,0,0-2.013-.635A3.033,3.033,0,0,0,7.578-7.4,1.737,1.737,0,0,0,6.9-5.944,1.571,1.571,0,0,0,7.633-4.63a8.39,8.39,0,0,0,2.4,1.023,11.045,11.045,0,0,1,2.687,1.132,4.273,4.273,0,0,1,1.486,1.457A3.793,3.793,0,0,1,14.679.906a3.41,3.41,0,0,1-1.373,2.849A5.955,5.955,0,0,1,9.581,4.813a7,7,0,0,1-2.859-.576A4.8,4.8,0,0,1,4.7,2.648,3.961,3.961,0,0,1,3.972.286h2.49a2.318,2.318,0,0,0,.807,1.89,3.534,3.534,0,0,0,2.313.669,3.07,3.07,0,0,0,1.953-.527A1.7,1.7,0,0,0,12.189.926Zm7.3,3.69h-2.48V-9.713h2.48ZM25.042-.7V4.616h-2.49V-9.713h5.482a5.543,5.543,0,0,1,3.813,1.251,4.207,4.207,0,0,1,1.412,3.31,4.067,4.067,0,0,1-1.383,3.281A5.811,5.811,0,0,1,28-.7Zm0-2.008h2.992a2.947,2.947,0,0,0,2.027-.625,2.3,2.3,0,0,0,.7-1.806,2.478,2.478,0,0,0-.709-1.855A2.731,2.731,0,0,0,28.1-7.705H25.042ZM44.6,2.9a2.162,2.162,0,0,0,1.486-.522,1.782,1.782,0,0,0,.63-1.289h2.254a3.513,3.513,0,0,1-.62,1.855,4.067,4.067,0,0,1-1.575,1.363,4.692,4.692,0,0,1-2.145.5,4.54,4.54,0,0,1-3.543-1.447,5.738,5.738,0,0,1-1.309-4V-.875a5.642,5.642,0,0,1,1.3-3.892,4.5,4.5,0,0,1,3.543-1.461,4.375,4.375,0,0,1,3.1,1.107,3.966,3.966,0,0,1,1.255,2.908H46.712a2.19,2.19,0,0,0-.625-1.506A2.011,2.011,0,0,0,44.6-4.31a2.1,2.1,0,0,0-1.791.841,4.294,4.294,0,0,0-.64,2.554v.384a4.365,4.365,0,0,0,.625,2.583A2.1,2.1,0,0,0,44.6,2.9ZM57.134,4.616a3.69,3.69,0,0,1-.276-.994,3.723,3.723,0,0,1-2.795,1.191A3.757,3.757,0,0,1,51.446,3.9a2.928,2.928,0,0,1-1.014-2.263A3.024,3.024,0,0,1,51.7-.979a6.128,6.128,0,0,1,3.617-.91H56.78v-.7a1.865,1.865,0,0,0-.463-1.324,1.834,1.834,0,0,0-1.407-.5A2.106,2.106,0,0,0,53.572-4a1.264,1.264,0,0,0-.522,1.038H50.659A2.654,2.654,0,0,1,51.239-4.6a3.868,3.868,0,0,1,1.58-1.2,5.548,5.548,0,0,1,2.229-.433,4.468,4.468,0,0,1,2.982.94,3.352,3.352,0,0,1,1.142,2.642v4.8a5.443,5.443,0,0,0,.4,2.293v.167ZM54.506,2.894a2.72,2.72,0,0,0,1.333-.344,2.3,2.3,0,0,0,.94-.925V-.383H55.491a3.525,3.525,0,0,0-2,.463,1.5,1.5,0,0,0-.669,1.309,1.4,1.4,0,0,0,.458,1.1A1.772,1.772,0,0,0,54.506,2.894ZM64.22,4.616H61.828V-10.5H64.22ZM71.2,2.9a2.162,2.162,0,0,0,1.486-.522,1.782,1.782,0,0,0,.63-1.289h2.254a3.513,3.513,0,0,1-.62,1.855,4.067,4.067,0,0,1-1.575,1.363,4.692,4.692,0,0,1-2.145.5,4.54,4.54,0,0,1-3.543-1.447,5.738,5.738,0,0,1-1.309-4V-.875a5.643,5.643,0,0,1,1.3-3.892,4.5,4.5,0,0,1,3.543-1.461,4.375,4.375,0,0,1,3.1,1.107,3.966,3.966,0,0,1,1.255,2.908H73.313a2.19,2.19,0,0,0-.625-1.506A2.011,2.011,0,0,0,71.2-4.31a2.1,2.1,0,0,0-1.791.841,4.294,4.294,0,0,0-.64,2.554v.384a4.365,4.365,0,0,0,.625,2.583A2.1,2.1,0,0,0,71.2,2.9Zm12.626.669a3.709,3.709,0,0,1-2.992,1.24A3.306,3.306,0,0,1,78.209,3.8,4.312,4.312,0,0,1,77.318.867v-6.9H79.71V.837q0,2.027,1.683,2.027a2.363,2.363,0,0,0,2.352-1.25V-6.032h2.391V4.616H83.883Zm7.292,1.043H88.724V-10.5h2.391Zm8.965,0a3.691,3.691,0,0,1-.276-.994,3.723,3.723,0,0,1-2.795,1.191A3.757,3.757,0,0,1,94.393,3.9a2.928,2.928,0,0,1-1.014-2.263A3.024,3.024,0,0,1,94.644-.979a6.128,6.128,0,0,1,3.617-.91h1.466v-.7a1.865,1.865,0,0,0-.463-1.324,1.834,1.834,0,0,0-1.407-.5A2.106,2.106,0,0,0,96.519-4,1.264,1.264,0,0,0,96-2.962H93.606A2.654,2.654,0,0,1,94.186-4.6a3.868,3.868,0,0,1,1.58-1.2,5.548,5.548,0,0,1,2.229-.433,4.468,4.468,0,0,1,2.982.94,3.352,3.352,0,0,1,1.142,2.642v4.8a5.443,5.443,0,0,0,.4,2.293v.167ZM97.454,2.894a2.72,2.72,0,0,0,1.333-.344,2.3,2.3,0,0,0,.94-.925V-.383H98.438a3.525,3.525,0,0,0-2,.463,1.5,1.5,0,0,0-.669,1.309,1.4,1.4,0,0,0,.458,1.1A1.772,1.772,0,0,0,97.454,2.894ZM107.62-8.62v2.588h1.88v1.771h-1.88V1.683a1.309,1.309,0,0,0,.241.881,1.118,1.118,0,0,0,.861.271,3.684,3.684,0,0,0,.837-.1v1.85a5.89,5.89,0,0,1-1.575.226q-2.756,0-2.756-3.041V-4.261h-1.752V-6.032h1.752V-8.62Zm2.962,7.814a6.279,6.279,0,0,1,.62-2.82,4.528,4.528,0,0,1,1.742-1.929,4.908,4.908,0,0,1,2.578-.674,4.651,4.651,0,0,1,3.5,1.388,5.458,5.458,0,0,1,1.452,3.681l.01.561a6.335,6.335,0,0,1-.605,2.815,4.474,4.474,0,0,1-1.732,1.919,4.944,4.944,0,0,1-2.6.679,4.619,4.619,0,0,1-3.607-1.5,5.748,5.748,0,0,1-1.353-4Zm2.391.207a4.291,4.291,0,0,0,.679,2.573,2.207,2.207,0,0,0,1.89.93,2.183,2.183,0,0,0,1.885-.945A4.739,4.739,0,0,0,118.1-.806a4.235,4.235,0,0,0-.694-2.559,2.215,2.215,0,0,0-1.885-.945,2.2,2.2,0,0,0-1.86.93A4.65,4.65,0,0,0,112.973-.6ZM128.08-3.847a5.918,5.918,0,0,0-.974-.079,2.194,2.194,0,0,0-2.214,1.26V4.616H122.5V-6.032h2.283l.059,1.191a2.694,2.694,0,0,1,2.4-1.388,2.239,2.239,0,0,1,.846.138Z" transform="translate(83 40.5)"/>
    <g id="Group_979" data-name="Group 979" transform="translate(-2.524)">
      <path id="Path_315" data-name="Path 315" class="cls-2" d="M2.6,0H30.154a2.43,2.43,0,0,1,2.6,2.216V35.323a2.43,2.43,0,0,1-2.6,2.216H2.6A2.43,2.43,0,0,1,0,35.323V2.216A2.43,2.43,0,0,1,2.6,0Z" transform="translate(44 14)"/>
      <g id="Group_978" data-name="Group 978" transform="translate(49.138 41.463)">
        <g id="Group_967" data-name="Group 967" transform="translate(0.431 -0.374)">
          <g class="cls-6" transform="matrix(1, 0, 0, 1, -1483.04, -41.09)">
            <circle id="Ellipse_4-2" data-name="Ellipse 4" class="cls-3" cx="10.413" cy="10.413" r="10.413" transform="translate(1483.04 41.09)"/>
          </g>
        </g>
        <g id="Group_977" data-name="Group 977" transform="translate(5.875 5.139)">
          <path id="Path_317" data-name="Path 317" class="cls-4" d="M.78.169,11.54,0A.74.74,0,0,1,12.3.757a.8.8,0,0,1-.78.781L.756,1.707A.74.74,0,0,1,0,.95.8.8,0,0,1,.78.169Z" transform="matrix(0.719, -0.695, 0.695, 0.719, 0, 8.541)"/>
          <path id="Path_320" data-name="Path 320" class="cls-4" d="M1.713,0A1.741,1.741,0,0,1,3.426,1.768,1.741,1.741,0,0,1,1.713,3.536,1.741,1.741,0,0,1,0,1.768,1.741,1.741,0,0,1,1.713,0Z" transform="translate(0.266 0.118)"/>
          <path id="Path_321" data-name="Path 321" class="cls-4" d="M1.713,0A1.741,1.741,0,0,1,3.426,1.768,1.741,1.741,0,0,1,1.713,3.536,1.741,1.741,0,0,1,0,1.768,1.741,1.741,0,0,1,1.713,0Z" transform="translate(6.32 6.366)"/>
        </g>
      </g>
      <g class="cls-5" transform="matrix(1, 0, 0, 1, -1433.48, 0)">
        <path id="Path_319-2" data-name="Path 319" class="cls-4" d="M2.956,0H20.689a2.956,2.956,0,0,1,0,5.911H2.956A2.956,2.956,0,0,1,2.956,0Z" transform="translate(1482.2 18.73)"/>
      </g>
      <path id="Path_327" data-name="Path 327" class="cls-4" d="M1.773,0A1.773,1.773,0,1,1,0,1.773,1.773,1.773,0,0,1,1.773,0Z" transform="translate(51.093 29.369)"/>
      <path id="Path_322" data-name="Path 322" class="cls-4" d="M1.773,0A1.773,1.773,0,1,1,0,1.773,1.773,1.773,0,0,1,1.773,0Z" transform="translate(58.187 29.369)"/>
      <path id="Path_323" data-name="Path 323" class="cls-4" d="M1.773,0A1.773,1.773,0,1,1,0,1.773,1.773,1.773,0,0,1,1.773,0Z" transform="translate(65.28 29.369)"/>
      <path id="Path_326" data-name="Path 326" class="cls-4" d="M1.773,0A1.773,1.773,0,1,1,0,1.773,1.773,1.773,0,0,1,1.773,0Z" transform="translate(51.093 35.28)"/>
      <path id="Path_325" data-name="Path 325" class="cls-4" d="M1.773,0A1.773,1.773,0,1,1,0,1.773,1.773,1.773,0,0,1,1.773,0Z" transform="translate(58.187 35.28)"/>
      <path id="Path_324" data-name="Path 324" class="cls-4" d="M1.773,0A1.773,1.773,0,1,1,0,1.773,1.773,1.773,0,0,1,1.773,0Z" transform="translate(65.28 35.28)"/>
    </g>
  </g>
</svg>
