02G|P|ADDITIONAL|AFOPN7887H|P|1000|1019448797||Y||E173580|Y|N|N|N||
FIVFG|P|ADDITIONAL|ABEPF5833F|P|5000|3199689/53||Y||E173580|Y|N|N|N||
K168SF-GR|P|ADDITIONAL|ABEPF5833F|P|5000|4374555/47||Y||E173580|Y|N|N|N||
GROWTH|P|ADDITIONAL|ABEPF5833F|P|5000|10045626/52||Y||E173580|Y|N|N|N||
LT17-GR|P|ADDITIONAL|ABEPF5833F|P|5000|3199689/53||Y||E173580|Y|N|N|N||


