32|P|ADDITIONAL|CCIPK8645R|P|1000|12380821/01||Y||E173580|Y|N|N|N||
32|P|ADDITIONAL|CCIPK8645R|P|1000|12380821/01||Y||E173580|Y|N|N|N||
02G|P|ADDITIONAL|AFOPN7887H|P|1000|1019448797||Y||E173580|Y|N|N|N||
FIVFG|P|ADDITIONAL|AAYPR4434M|P|5000|2991758/39||Y||E173580|Y|N|N|N||
GROWTH|P|ADDITIONAL|AAYPR4434M|P|5000|9432775/67||Y||E173580|Y|N|N|N||
F219-GR|P|ADDITIONAL|AAYPR4434M|P|5000|20683271||Y||E173580|Y|N|N|N||
32|P|ADDITIONAL|AAYPR4434M|P|5000|11733689/39||Y||E173580|Y|N|N|N||
 K168SF-GR|P|ADDITIONAL|AAYPR4434M|P|5000|4078858/73||Y||E173580|Y|N|N|N||
SBI147RG-GR|P|ADDITIONAL|ABEPF5833F|P|5000|17792405||Y||E173580|Y|N|N|N||
LT122-GR|P|FRESH|ABEPF5833F|P|5000|||Y||E173580|Y|N|N|N||
F219-GR|P|ADDITIONAL|ABEPF5833F|P|2000|20890554||Y||E173580|Y|N|N|N||
HDFCMCOG-GR|P|ADDITIONAL|ABEPF5833F|P|1000|12305606/24	||Y||E173580|Y|N|N|N||
 K168SF-GR|P|ADDITIONAL|ABEPF5833F|P|1000|4374555/47||Y||E173580|Y|N|N|N||
GROWTH|P|ADDITIONAL|ABEPF5833F|P|1000|10045626/52||Y||E173580|Y|N|N|N||
SBI147RG-GR|P|FRESH|BFRPN4910T|P|5000|||Y||E173580|Y|N|N|N||
SBI147RG-GR|P|FRESH|BFRPN4910T|P|5000|||Y||E173580|Y|N|N|N||
SBI147RG-GR|P|FRESH|BFRPN4910T|P|5000|||Y||E173580|Y|N|N|N||
SBI147RG-GR|P|FRESH|BFRPN4910T|P|5000|||Y||E173580|Y|N|N|N||
SBI147RG-GR|P|FRESH|BFRPN4910T|P|5000|||Y||E173580|Y|N|N|N||
FTIFIPP-GR|P|FRESH|ABEPF5833F|P|10000|||Y||E173580|Y|N|N|N||
SBI147RG-GR|P|FRESH|BFRPN4910T|P|5000|||Y||E173580|Y|N|N|N||
SBI147RG-GR|P|FRESH|BFRPN4910T|P|5000|||Y||E173580|Y|N|N|N||
SBI147RG-GR|P|FRESH|BFRPN4910T|P|5000|||Y||E173580|Y|N|N|N||
SBI147RG-GR|P|FRESH|BFRPN4910T|P|5000|||Y||E173580|Y|N|N|N||
SBI147RG-GR|P|FRESH|BFRPN4910T|P|5000|||Y||E173580|Y|N|N|N||
FTIFIPP-GR|P|FRESH|BFRPN4910T|P|5000|||Y||E173580|Y|N|N|N||
F219-GR|P|FRESH|BFRPN4910Y|P|5000|||Y||E173580|Y|N|N|N||
SBI147RG-GR|P|FRESH|BFRPN4910Y|P|5000|||Y||E173580|Y|N|N|N||
LT122-GR|P|FRESH|BFRPN4910Y|P|5000|||Y||E173580|Y|N|N|N||
F219-GR|P|FRESH|BFRPN4910Y|P|1000|||Y||E173580|Y|N|N|N||
FIVFG|P|FRESH|BFRPN4910Y|P|1000|||Y||E173580|Y|N|N|N||
HDFCMCOG-GR|P|FRESH|BFRPN4910Y|P|1000|||Y||E173580|Y|N|N|N||
 K168SF-GR|P|FRESH|BFRPN4910Y|P|1000|||Y||E173580|Y|N|N|N||
GROWTH|P|FRESH|BFRPN4910Y|P|1000|||Y||E173580|Y|N|N|N||
F219-GR|P|FRESH|BFRPN4910Y|P|1000|||Y||E173580|Y|N|N|N||
FIVFG|P|FRESH|BFRPN4910Y|P|1000|||Y||E173580|Y|N|N|N||
HDFCMCOG-GR|P|FRESH|BFRPN4910Y|P|1000|||Y||E173580|Y|N|N|N||
 K168SF-GR|P|FRESH|BFRPN4910Y|P|1000|||Y||E173580|Y|N|N|N||
GROWTH|P|FRESH|BFRPN4910Y|P|1000|||Y||E173580|Y|N|N|N||
F219-GR|P|FRESH|BFRPN4910Y|P|1000|||Y||E173580|Y|N|N|N||
FIVFG|P|FRESH|BFRPN4910Y|P|1000|||Y||E173580|Y|N|N|N||
HDFCMCOG-GR|P|FRESH|BFRPN4910Y|P|1000|||Y||E173580|Y|N|N|N||
 K168SF-GR|P|FRESH|BFRPN4910Y|P|1000|||Y||E173580|Y|N|N|N||
GROWTH|P|FRESH|BFRPN4910Y|P|1000|||Y||E173580|Y|N|N|N||
F219-GR|P|FRESH|BFRPN4910Y|P|1000|||Y||E173580|Y|N|N|N||
FIVFG|P|FRESH|BFRPN4910Y|P|1000|||Y||E173580|Y|N|N|N||
HDFCMCOG-GR|P|FRESH|BFRPN4910Y|P|1000|||Y||E173580|Y|N|N|N||
 K168SF-GR|P|FRESH|BFRPN4910Y|P|1000|||Y||E173580|Y|N|N|N||
GROWTH|P|FRESH|BFRPN4910Y|P|1000|||Y||E173580|Y|N|N|N||
F219-GR|P|FRESH|BFRPN4910Y|P|1000|||Y||E173580|Y|N|N|N||
FIVFG|P|FRESH|BFRPN4910Y|P|1000|||Y||E173580|Y|N|N|N||
HDFCMCOG-GR|P|FRESH|BFRPN4910Y|P|1000|||Y||E173580|Y|N|N|N||
 K168SF-GR|P|FRESH|BFRPN4910Y|P|1000|||Y||E173580|Y|N|N|N||
GROWTH|P|FRESH|BFRPN4910Y|P|1000|||Y||E173580|Y|N|N|N||
F219-GR|P|FRESH|BFRPN4910Y|P|1000|||Y||E173580|Y|N|N|N||
FIVFG|P|FRESH|BFRPN4910Y|P|1000|||Y||E173580|Y|N|N|N||
HDFCMCOG-GR|P|FRESH|BFRPN4910Y|P|1000|||Y||E173580|Y|N|N|N||
 K168SF-GR|P|FRESH|BFRPN4910Y|P|1000|||Y||E173580|Y|N|N|N||
GROWTH|P|FRESH|BFRPN4910Y|P|1000|||Y||E173580|Y|N|N|N||
